digraph {
    rankdir = LR;
    batch_1 [shape = rectangle];
    batch_2 [shape = rectangle];
    output_1 [shape = rectangle];
    output_2 [shape = rectangle];
    representation_network_1 [label = "representation network"];
    representation_network_2 [label = "representation network"];
    loss;

    batch_1 -> representation_network_1;
    batch_2 -> representation_network_2;
    representation_network_1 -> output_1;
    representation_network_2 -> output_2;
    output_1 -> loss;
    output_2 -> loss;
}